{"result":{"total":3956,"pagination":{"pagesize":20,"totalRows":3956,"currentPage":1,"firstRowIndex":0,"pageCount":198},"detailUrl":"carmart_app/artDetails.html","rows":[{"mediaId":16682,"title":"","type":2,"content":null,"videoUrl":"https://ix86.win:8081/video/d.mp4","thumbnail":"http://videoqiniu.laosiji.com/WRZRQ_wugem4xrS0VBPXyRl873w=/ltkPch0-PSshOJPuc6lZuiPk2OH0?imageView2/2/w/640","author":"同趣团CIO-九先生","status":1,"channel":4,"publishTime":"2019-06-13","praiseNum":41,"shareDownloadNum":0,"sourceName":"老司机","sourceUrl":"http://m.laosiji.com/weiwen/1016036.html","resourceId":"1016036","pvNum":114,"uvNum":0,"createTime":"2019-06-14 06:30:18","updateTime":"2019-06-14 06:30:18","commentNum":null,"publishTimeBO":1560434760000,"updateTimeBO":1560465018000,"thumbnailBO":["http://videoqiniu.laosiji.com/WRZRQ_wugem4xrS0VBPXyRl873w=/ltkPch0-PSshOJPuc6lZuiPk2OH0?imageView2/2/w/640"],"currentTime":1560484767769},{"mediaId":16677,"title":"","type":2,"content":null,"videoUrl":"http://videoqiniu.laosiji.com/typ0a8eK3HTXJpMBuT67IiOAOuI=/lmPfsYAg7f6G816eGsIkWw0a0JVV","thumbnail":"http://videoqiniu.laosiji.com/hwKT49uq-6JEx9TwHIF0Q1nBndg=/lmPfsYAg7f6G816eGsIkWw0a0JVV?imageView2/2/w/640","author":"汽场","status":1,"channel":4,"publishTime":"2019-06-13","praiseNum":30,"shareDownloadNum":0,"sourceName":"老司机","sourceUrl":"http://m.laosiji.com/weiwen/1015963.html","resourceId":"1015963","pvNum":113,"uvNum":0,"createTime":"2019-06-14 06:30:03","updateTime":"2019-06-14 06:30:03","commentNum":null,"publishTimeBO":1560428280000,"updateTimeBO":1560465003000,"thumbnailBO":["http://videoqiniu.laosiji.com/hwKT49uq-6JEx9TwHIF0Q1nBndg=/lmPfsYAg7f6G816eGsIkWw0a0JVV?imageView2/2/w/640"],"currentTime":1560484767769},{"mediaId":16683,"title":"溜溜哥泰国大冒险最终之魔王决战篇之旅途的终点","type":2,"content":null,"videoUrl":"http://videoqiniu.laosiji.com/9xiTK1JIrZaESavwxrflffnxqeg=/ljwFhrC6YI_jFj6BArues94z20Sj","thumbnail":"http://videoqiniu.laosiji.com/1sNOEykMdFIxQ6CHozcXVM5d48w=/ljwFhrC6YI_jFj6BArues94z20Sj?imageView2/2/w/640","author":"溜溜哥","status":1,"channel":4,"publishTime":"2019-06-13","praiseNum":21,"shareDownloadNum":0,"sourceName":"老司机","sourceUrl":"http://m.laosiji.com/weiwen/1015945.html","resourceId":"1015945","pvNum":86,"uvNum":0,"createTime":"2019-06-14 06:30:30","updateTime":"2019-06-14 06:30:30","commentNum":null,"publishTimeBO":1560426780000,"updateTimeBO":1560465030000,"thumbnailBO":["http://videoqiniu.laosiji.com/1sNOEykMdFIxQ6CHozcXVM5d48w=/ljwFhrC6YI_jFj6BArues94z20Sj?imageView2/2/w/640"],"currentTime":1560484767769},{"mediaId":16678,"title":"","type":2,"content":null,"videoUrl":"http://videoqiniu.laosiji.com/typ0a8eK3HTXJpMBuT67IiOAOuI=/lvqhDQe5xp5EwvUDzt01iXkasICH","thumbnail":"http://videoqiniu.laosiji.com/1QVD_yrIH6TnXK6vDplqk5a_oKo=/lvqhDQe5xp5EwvUDzt01iXkasICH?imageView2/2/w/640","author":"洪琦","status":1,"channel":4,"publishTime":"2019-06-13","praiseNum":28,"shareDownloadNum":0,"sourceName":"老司机","sourceUrl":"http://m.laosiji.com/weiwen/1015944.html","resourceId":"1015944","pvNum":101,"uvNum":0,"createTime":"2019-06-14 06:30:04","updateTime":"2019-06-14 06:30:04","commentNum":null,"publishTimeBO":1560426720000,"updateTimeBO":1560465004000,"thumbnailBO":["http://videoqiniu.laosiji.com/1QVD_yrIH6TnXK6vDplqk5a_oKo=/lvqhDQe5xp5EwvUDzt01iXkasICH?imageView2/2/w/640"],"currentTime":1560484767769},{"mediaId":16662,"title":"如果你梦想拥有一台保时捷，那么Macan绝对会是最触手可及的车型，从销量也可以看出它受欢迎的程度，因此对于这台车的中期改款，保时捷自当谨慎。但作为一台原装进口的欧洲高档货，却让我发现了一个“不可饶恕”的缺陷，究竟是什么问题？","type":2,"content":null,"videoUrl":"http://videoqiniu.laosiji.com/typ0a8eK3HTXJpMBuT67IiOAOuI=/lgsWQNBRbsDw2QWcKbdPy3jUnmfI","thumbnail":"http://videoqiniu.laosiji.com/Dr6KFVvOitgiQBx2CfIn_3aY6is=/lgsWQNBRbsDw2QWcKbdPy3jUnmfI?imageView2/2/w/640","author":"一辆","status":1,"channel":4,"publishTime":"2019-06-13","praiseNum":36,"shareDownloadNum":0,"sourceName":"老司机","sourceUrl":"http://m.laosiji.com/weiwen/1015923.html","resourceId":"1015923","pvNum":106,"uvNum":0,"createTime":"2019-06-13 19:30:05","updateTime":"2019-06-13 22:17:38","commentNum":null,"publishTimeBO":1560424685000,"updateTimeBO":1560435458000,"thumbnailBO":["http://videoqiniu.laosiji.com/Dr6KFVvOitgiQBx2CfIn_3aY6is=/lgsWQNBRbsDw2QWcKbdPy3jUnmfI?imageView2/2/w/640"],"currentTime":1560484767769},{"mediaId":16663,"title":"缤越上市7个月了，月均销量都在万台以上，在紧凑级SUV价格挤压的态势下，作为一款自主品牌小型SUV，的确是很值得关注的车型。双离合、三气缸、四排气，7.9秒破百，L2级辅助驾驶，顶配不到12万，话题不少，那就视频中见吧","type":2,"content":null,"videoUrl":"http://videoqiniu.laosiji.com/typ0a8eK3HTXJpMBuT67IiOAOuI=/lkja0411XfbadrCa5vG-f-ajKUEF","thumbnail":"http://videoqiniu.laosiji.com/8V-eHDl8x5Qq37thLgPqYA_IIHw=/lkja0411XfbadrCa5vG-f-ajKUEF?imageView2/2/w/640","author":"车若初见","status":1,"channel":4,"publishTime":"2019-06-13","praiseNum":43,"shareDownloadNum":0,"sourceName":"老司机","sourceUrl":"http://m.laosiji.com/weiwen/1015918.html","resourceId":"1015918","pvNum":97,"uvNum":0,"createTime":"2019-06-13 19:30:05","updateTime":"2019-06-13 19:30:05","commentNum":null,"publishTimeBO":1560424205000,"updateTimeBO":1560425405000,"thumbnailBO":["http://videoqiniu.laosiji.com/8V-eHDl8x5Qq37thLgPqYA_IIHw=/lkja0411XfbadrCa5vG-f-ajKUEF?imageView2/2/w/640"],"currentTime":1560484767769},{"mediaId":16670,"title":"2019.06.08我们前往库伦沙漠游玩，让我以讲故事的方式来叙述一下吧。","type":2,"content":null,"videoUrl":"http://videoqiniu.laosiji.com/typ0a8eK3HTXJpMBuT67IiOAOuI=/liIMwkXdlvcPvxQql6l-Ak69zdUp","thumbnail":"http://videoqiniu.laosiji.com/3cmlBUMhb-de5VtaA7XZZ0GbS9s=/liIMwkXdlvcPvxQql6l-Ak69zdUp?imageView2/2/w/640","author":"老丁出品","status":1,"channel":4,"publishTime":"2019-06-13","praiseNum":22,"shareDownloadNum":0,"sourceName":"老司机","sourceUrl":"http://m.laosiji.com/weiwen/1015910.html","resourceId":"1015910","pvNum":124,"uvNum":0,"createTime":"2019-06-13 19:30:26","updateTime":"2019-06-13 19:30:26","commentNum":null,"publishTimeBO":1560423386000,"updateTimeBO":1560425426000,"thumbnailBO":["http://videoqiniu.laosiji.com/3cmlBUMhb-de5VtaA7XZZ0GbS9s=/liIMwkXdlvcPvxQql6l-Ak69zdUp?imageView2/2/w/640"],"currentTime":1560484767769},{"mediaId":16664,"title":"外观内饰全面升级，静态体验更年轻的别克全新昂科拉。","type":2,"content":null,"videoUrl":"http://videoqiniu.laosiji.com/typ0a8eK3HTXJpMBuT67IiOAOuI=/lt-t7NeJHQsdjj7PAIcPPAmB1CDR","thumbnail":"http://videoqiniu.laosiji.com/eHZ9ixIx3xw67Cxm7XIXWQN01ZA=/lt-t7NeJHQsdjj7PAIcPPAmB1CDR?imageView2/2/w/640","author":"爱极客官方","status":1,"channel":4,"publishTime":"2019-06-13","praiseNum":39,"shareDownloadNum":0,"sourceName":"老司机","sourceUrl":"http://m.laosiji.com/weiwen/1015907.html","resourceId":"1015907","pvNum":124,"uvNum":0,"createTime":"2019-06-13 19:30:06","updateTime":"2019-06-13 19:30:06","commentNum":null,"publishTimeBO":1560423065000,"updateTimeBO":1560425406000,"thumbnailBO":["http://videoqiniu.laosiji.com/eHZ9ixIx3xw67Cxm7XIXWQN01ZA=/lt-t7NeJHQsdjj7PAIcPPAmB1CDR?imageView2/2/w/640"],"currentTime":1560484767769},{"mediaId":16665,"title":"","type":2,"content":null,"videoUrl":"http://videoqiniu.laosiji.com/typ0a8eK3HTXJpMBuT67IiOAOuI=/lg_gr14H1yHF890XUoApMQbQY6OQ","thumbnail":"http://videoqiniu.laosiji.com/vhGybd_EAP9OAsvBz-iQ9P4Xy5Q=/lg_gr14H1yHF890XUoApMQbQY6OQ?imageView2/2/w/640","author":"30秒懂车","status":1,"channel":4,"publishTime":"2019-06-13","praiseNum":44,"shareDownloadNum":0,"sourceName":"老司机","sourceUrl":"http://m.laosiji.com/weiwen/1015896.html","resourceId":"1015896","pvNum":94,"uvNum":0,"createTime":"2019-06-13 19:30:07","updateTime":"2019-06-13 19:30:07","commentNum":null,"publishTimeBO":1560422225000,"updateTimeBO":1560425407000,"thumbnailBO":["http://videoqiniu.laosiji.com/vhGybd_EAP9OAsvBz-iQ9P4Xy5Q=/lg_gr14H1yHF890XUoApMQbQY6OQ?imageView2/2/w/640"],"currentTime":1560484767769},{"mediaId":16666,"title":"","type":2,"content":null,"videoUrl":"http://videoqiniu.laosiji.com/typ0a8eK3HTXJpMBuT67IiOAOuI=/ll5KON0Gjt9c5XrN9mnv0uNp555u","thumbnail":"http://videoqiniu.laosiji.com/2Ma4xZuioCnrWi4kykFG2Yuy2NM=/ll5KON0Gjt9c5XrN9mnv0uNp555u?imageView2/2/w/640","author":"30秒懂车","status":1,"channel":4,"publishTime":"2019-06-13","praiseNum":32,"shareDownloadNum":0,"sourceName":"老司机","sourceUrl":"http://m.laosiji.com/weiwen/1015882.html","resourceId":"1015882","pvNum":101,"uvNum":0,"createTime":"2019-06-13 19:30:07","updateTime":"2019-06-13 19:30:07","commentNum":null,"publishTimeBO":1560420840000,"updateTimeBO":1560425407000,"thumbnailBO":["http://videoqiniu.laosiji.com/2Ma4xZuioCnrWi4kykFG2Yuy2NM=/ll5KON0Gjt9c5XrN9mnv0uNp555u?imageView2/2/w/640"],"currentTime":1560484767769},{"mediaId":16667,"title":"英国车，这是一个独特的存在。每一台英国车都有着浓郁的英式气质，而同时，每一台英国车又有着独一无二的性格。迷你代表年轻、捷豹代表反派、迈凯伦有着对赛道的极致专注，宾利和劳斯莱斯则拥有高高在上的贵族气息。而绅士般的优雅，便是今天的主角——阿斯顿·马丁的专属气质。","type":2,"content":null,"videoUrl":"http://videoqiniu.laosiji.com/typ0a8eK3HTXJpMBuT67IiOAOuI=/lhv5RGVE7GDhPwYYwEpi0de4HWL2","thumbnail":"http://videoqiniu.laosiji.com/XzMO79CsRhOrmD5hbdGgs5D_cfg=/lhv5RGVE7GDhPwYYwEpi0de4HWL2?imageView2/2/w/640","author":"这车值么","status":1,"channel":4,"publishTime":"2019-06-13","praiseNum":46,"shareDownloadNum":0,"sourceName":"老司机","sourceUrl":"http://m.laosiji.com/weiwen/1015859.html","resourceId":"1015859","pvNum":123,"uvNum":0,"createTime":"2019-06-13 19:30:07","updateTime":"2019-06-13 19:30:07","commentNum":null,"publishTimeBO":1560418800000,"updateTimeBO":1560425407000,"thumbnailBO":["http://videoqiniu.laosiji.com/XzMO79CsRhOrmD5hbdGgs5D_cfg=/lhv5RGVE7GDhPwYYwEpi0de4HWL2?imageView2/2/w/640"],"currentTime":1560484767769},{"mediaId":16668,"title":"","type":2,"content":null,"videoUrl":"http://videoqiniu.laosiji.com/typ0a8eK3HTXJpMBuT67IiOAOuI=/lvIN_abHOWsdKjuxvGGY7oY65CdR","thumbnail":"http://videoqiniu.laosiji.com/5CFi-ozxAoaZWo83RsD83oxsZiQ=/lvIN_abHOWsdKjuxvGGY7oY65CdR?imageView2/2/w/640","author":"车业杂谈","status":1,"channel":4,"publishTime":"2019-06-13","praiseNum":29,"shareDownloadNum":0,"sourceName":"老司机","sourceUrl":"http://m.laosiji.com/weiwen/1015839.html","resourceId":"1015839","pvNum":111,"uvNum":0,"createTime":"2019-06-13 19:30:08","updateTime":"2019-06-13 19:30:08","commentNum":null,"publishTimeBO":1560417600000,"updateTimeBO":1560425408000,"thumbnailBO":["http://videoqiniu.laosiji.com/5CFi-ozxAoaZWo83RsD83oxsZiQ=/lvIN_abHOWsdKjuxvGGY7oY65CdR?imageView2/2/w/640"],"currentTime":1560484767769},{"mediaId":16669,"title":"奇瑞瑞虎8上市两年，终于迎来了中期改款，此次改款在外观上改变虽然不大，但其配置升级十分明显，并且新车新增了1.6T**I车型，驾驶感受Emm...来看本期节目吧~","type":2,"content":null,"videoUrl":"http://videoqiniu.laosiji.com/typ0a8eK3HTXJpMBuT67IiOAOuI=/lh1aZOGsoyh8Gj6XZvL9y_kuwf6i","thumbnail":"http://videoqiniu.laosiji.com/F6KHYAbZbsZxPg6KTcQfV7vrSz8=/lh1aZOGsoyh8Gj6XZvL9y_kuwf6i?imageView2/2/w/640","author":"趣车荟","status":1,"channel":4,"publishTime":"2019-06-13","praiseNum":25,"shareDownloadNum":0,"sourceName":"老司机","sourceUrl":"http://m.laosiji.com/weiwen/1015636.html","resourceId":"1015636","pvNum":90,"uvNum":0,"createTime":"2019-06-13 19:30:08","updateTime":"2019-06-13 19:30:08","commentNum":null,"publishTimeBO":1560403200000,"updateTimeBO":1560425408000,"thumbnailBO":["http://videoqiniu.laosiji.com/F6KHYAbZbsZxPg6KTcQfV7vrSz8=/lh1aZOGsoyh8Gj6XZvL9y_kuwf6i?imageView2/2/w/640"],"currentTime":1560484767769},{"mediaId":16679,"title":"对于“最美路虎”这个称号，想必大家应该都能猜到是什么车型了！路虎旗下的车型，款款都是经典！60万的起售价，也让很多喜欢这台车的人心动不已。快点击视频一起来看看，这台“最美路虎”跟肉肉有什么故事吧。","type":2,"content":null,"videoUrl":"http://videoqiniu.laosiji.com/typ0a8eK3HTXJpMBuT67IiOAOuI=/llKqseEgE2QtUKnZsiBND9FSgjFZ","thumbnail":"http://videoqiniu.laosiji.com/M3nOJyA8bBDfw2C7pXXUQgPXxMI=/llKqseEgE2QtUKnZsiBND9FSgjFZ?imageView2/2/w/640","author":"有车有肉的肉肉","status":1,"channel":4,"publishTime":"2019-06-13","praiseNum":32,"shareDownloadNum":0,"sourceName":"老司机","sourceUrl":"http://m.laosiji.com/weiwen/1015607.html","resourceId":"1015607","pvNum":108,"uvNum":0,"createTime":"2019-06-14 06:30:05","updateTime":"2019-06-14 06:30:05","commentNum":null,"publishTimeBO":1560401760000,"updateTimeBO":1560465005000,"thumbnailBO":["http://videoqiniu.laosiji.com/M3nOJyA8bBDfw2C7pXXUQgPXxMI=/llKqseEgE2QtUKnZsiBND9FSgjFZ?imageView2/2/w/640"],"currentTime":1560484767770},{"mediaId":16656,"title":"hello，这是第一个视频游记，做的不好，看官多多包涵，由于第一天主要赶路为主，所以风景相对比较少，基本都是在车里瞎BB，下一集我会加入一些无人机的镜头在里面。\n\n此外，这里说明下第一集里个地点的海拔，\n\n成都：500米\n康定：2800米\n折多山：4000米\n新都桥：3500米","type":2,"content":null,"videoUrl":"http://videoqiniu.laosiji.com/typ0a8eK3HTXJpMBuT67IiOAOuI=/ljSq9OhFrFTABBn444-SyRKngBLC","thumbnail":"http://videoqiniu.laosiji.com/EykufZ4req7DbTJMG63CzrAVZRk=/ljSq9OhFrFTABBn444-SyRKngBLC?imageView2/2/w/640","author":"xlmjimmy","status":1,"channel":4,"publishTime":"2019-06-13","praiseNum":43,"shareDownloadNum":0,"sourceName":"老司机","sourceUrl":"http://m.laosiji.com/weiwen/1015603.html","resourceId":"1015603","pvNum":80,"uvNum":0,"createTime":"2019-06-13 13:30:19","updateTime":"2019-06-13 13:30:19","commentNum":null,"publishTimeBO":1560401479000,"updateTimeBO":1560403819000,"thumbnailBO":["http://videoqiniu.laosiji.com/EykufZ4req7DbTJMG63CzrAVZRk=/ljSq9OhFrFTABBn444-SyRKngBLC?imageView2/2/w/640"],"currentTime":1560484767770},{"mediaId":16644,"title":"","type":2,"content":null,"videoUrl":"http://videoqiniu.laosiji.com/typ0a8eK3HTXJpMBuT67IiOAOuI=/lvTUfL0S2nj2w5MXP-diau7HnWRE","thumbnail":"http://videoqiniu.laosiji.com/N2HZrokXBJ1UqpOkc4twyAvdCCc=/lvTUfL0S2nj2w5MXP-diau7HnWRE?imageView2/2/w/640","author":"爽爽侃车","status":1,"channel":4,"publishTime":"2019-06-13","praiseNum":28,"shareDownloadNum":0,"sourceName":"老司机","sourceUrl":"http://m.laosiji.com/weiwen/1015596.html","resourceId":"1015596","pvNum":112,"uvNum":0,"createTime":"2019-06-13 13:30:05","updateTime":"2019-06-13 13:30:05","commentNum":null,"publishTimeBO":1560400804000,"updateTimeBO":1560403805000,"thumbnailBO":["http://videoqiniu.laosiji.com/N2HZrokXBJ1UqpOkc4twyAvdCCc=/lvTUfL0S2nj2w5MXP-diau7HnWRE?imageView2/2/w/640"],"currentTime":1560484767770},{"mediaId":16659,"title":"我爸有一辆老款的宝马5系，他对它的3个故障一直耿耿于怀，第一个是汽车空调不制冷，第二个是雨刮水喷不出，第三就是防冻液会一直莫名其妙减少。父亲节快到了，为了尽儿子的孝心，我决定偷偷把他的车开出来搞定这三个问题。\n\n经过检查第一个问题其实是我爸忽略了车内的一个冷暖风调节旋钮，这个旋钮转到蓝色的位置就是吹冷风，红色的位置同时还会有暖风吹出。这种设计本身是想让车主更大范围的调节自己喜欢的温度，但是也让很多不看说明书的车主犯了愁。\n\n第二个问题首先要判断是电机的问题还是水管的问题，能听到电机工作的声音就说明电机是好的。经过两步简单的测试可以判断出其实是水管下部堵住了，用气枪吹通管路就解决了问题。不过这样的方式是治标不治本，将防冻液壶拆下清洗才是彻底解决问题的办法。\n\n第三个问题是这款宝马的通病，漏防冻液是水箱漏水导致的，一般都是通过更换水箱的方式去解决。","type":2,"content":null,"videoUrl":"http://videoqiniu.laosiji.com/typ0a8eK3HTXJpMBuT67IiOAOuI=/locQzj_gPNZHoQtpoQPajMHUNgmu","thumbnail":"http://videoqiniu.laosiji.com/R3YrzfYxUwiap4UMRnIwksJcU1k=/locQzj_gPNZHoQtpoQPajMHUNgmu?imageView2/2/w/640","author":"马头人车库","status":1,"channel":4,"publishTime":"2019-06-13","praiseNum":27,"shareDownloadNum":0,"sourceName":"老司机","sourceUrl":"http://m.laosiji.com/weiwen/1015595.html","resourceId":"1015595","pvNum":91,"uvNum":0,"createTime":"2019-06-13 13:30:49","updateTime":"2019-06-13 13:30:49","commentNum":null,"publishTimeBO":1560400548000,"updateTimeBO":1560403849000,"thumbnailBO":["http://videoqiniu.laosiji.com/R3YrzfYxUwiap4UMRnIwksJcU1k=/locQzj_gPNZHoQtpoQPajMHUNgmu?imageView2/2/w/640"],"currentTime":1560484767770},{"mediaId":16645,"title":"合资品牌向下兼容，推出更多平价车型是大势所趋。中国市场目前还是合资品牌受到更多信赖的状态。但变化是显著而快速的。即使抱定了购买合资品牌汽车的态度，顾客也要求它们价格要低，品质要好。斯柯达，恰恰是凭借这个特质，持续地在欧洲市场获得成功。我希望，它能在中国，同样彰显这种风格。柯米克，就是一款这样的斯柯达。","type":2,"content":null,"videoUrl":"http://videoqiniu.laosiji.com/typ0a8eK3HTXJpMBuT67IiOAOuI=/lsqPW9Ram7JwfRCp2Cm_W75AE7S9","thumbnail":"http://videoqiniu.laosiji.com/fb5bocmxz7k_Smn9y_FYmquyFjY=/lsqPW9Ram7JwfRCp2Cm_W75AE7S9?imageView2/2/w/640","author":"踢车帮","status":1,"channel":4,"publishTime":"2019-06-13","praiseNum":46,"shareDownloadNum":0,"sourceName":"老司机","sourceUrl":"http://m.laosiji.com/weiwen/1015587.html","resourceId":"1015587","pvNum":85,"uvNum":0,"createTime":"2019-06-13 13:30:06","updateTime":"2019-06-13 13:30:06","commentNum":null,"publishTimeBO":1560399300000,"updateTimeBO":1560403806000,"thumbnailBO":["http://videoqiniu.laosiji.com/fb5bocmxz7k_Smn9y_FYmquyFjY=/lsqPW9Ram7JwfRCp2Cm_W75AE7S9?imageView2/2/w/640"],"currentTime":1560484767770},{"mediaId":16646,"title":"中期改款的本田缤智将于6月18日上市。新车在外观、内饰以及配置方面都进行了升级，同时高配车型将换装低功率版1.5T发动机，最大功率177马力。那么，改款后的新缤智会有何变化之处呢？作为老车主的吉姆今天就带你抢“鲜”体验一番。","type":2,"content":null,"videoUrl":"http://videoqiniu.laosiji.com/typ0a8eK3HTXJpMBuT67IiOAOuI=/lmk-IBjkwLnBnafT_e1Zn3cxnJIe","thumbnail":"http://videoqiniu.laosiji.com/khRzw1GFvWEQsUnYnm4jUqSjEzY=/lmk-IBjkwLnBnafT_e1Zn3cxnJIe?imageView2/2/w/640","author":"AL频道出品","status":1,"channel":4,"publishTime":"2019-06-13","praiseNum":28,"shareDownloadNum":0,"sourceName":"老司机","sourceUrl":"http://m.laosiji.com/weiwen/1015580.html","resourceId":"1015580","pvNum":109,"uvNum":0,"createTime":"2019-06-13 13:30:06","updateTime":"2019-06-13 13:30:06","commentNum":null,"publishTimeBO":1560398940000,"updateTimeBO":1560403806000,"thumbnailBO":["http://videoqiniu.laosiji.com/khRzw1GFvWEQsUnYnm4jUqSjEzY=/lmk-IBjkwLnBnafT_e1Zn3cxnJIe?imageView2/2/w/640"],"currentTime":1560484767770},{"mediaId":16657,"title":"单车穿越318国道全程之旅已经完成了江浙沪皖鄂5省的行程，这一期，我们继续向前，穿过重庆的万州，进入四川成都，正式踏上最难也最美的川藏线\n\n这一期视频给大家呈现的是：\n\n◆网红城市重庆的另一面，小众却大美的的万州千层梯田。\n\n◆成都4S店保养全记录\n\n◆翻越折多山，跨过汉藏分界线，正式进入康巴藏区。","type":2,"content":null,"videoUrl":"http://videoqiniu.laosiji.com/typ0a8eK3HTXJpMBuT67IiOAOuI=/lmDHOzjdYlCI7SMUj01X_ETq0qox","thumbnail":"http://videoqiniu.laosiji.com/biZ0WXZwq0slJWDeDTh_Czhi_6M=/lmDHOzjdYlCI7SMUj01X_ETq0qox?imageView2/2/w/640","author":"王诗奇Mr兔","status":1,"channel":4,"publishTime":"2019-06-13","praiseNum":38,"shareDownloadNum":0,"sourceName":"老司机","sourceUrl":"http://m.laosiji.com/weiwen/1015567.html","resourceId":"1015567","pvNum":124,"uvNum":0,"createTime":"2019-06-13 13:30:20","updateTime":"2019-06-13 13:30:20","commentNum":null,"publishTimeBO":1560397680000,"updateTimeBO":1560403820000,"thumbnailBO":["http://videoqiniu.laosiji.com/biZ0WXZwq0slJWDeDTh_Czhi_6M=/lmDHOzjdYlCI7SMUj01X_ETq0qox?imageView2/2/w/640"],"currentTime":1560484767770}]},"resultCode":"0000","resultUrl":null,"resultMsg":"获取资讯信息成功"}
